{
 "actions": [],
 "allow_rename": 1,
 "creation": "2023-08-25 10:56:33.949528",
 "default_view": "List",
 "doctype": "DocType",
 "editable_grid": 1,
 "engine": "InnoDB",
 "field_order": [
  "name1"
 ],
 "fields": [
  {
   "fieldname": "name1",
   "fieldtype": "Data",
   "label": "Name"
  }
 ],
 "index_web_pages_for_search": 1,
 "links": [],
 "modified": "2023-08-25 10:56:33.949528",
 "modified_by": "Administrator",
 "module": "Setup",
 "name": "Demo DocType",
 "owner": "Administrator",
 "permissions": [
  {
   "create": 1,
   "delete": 1,
   "email": 1,
   "export": 1,
   "print": 1,
   "read": 1,
   "report": 1,
   "role": "System Manager",
   "share": 1,
   "write": 1
  }
 ],
 "sort_field": "modified",
 "sort_order": "DESC",
 "states": []
}